{
  "photos": {
    "page": 1,
    "pages": 1800,
    "perpage": 100,
    "total": "179977",
    "photo": [
      {
        "id": "50215731483",
        "owner": "24083365@N07",
        "secret": "539b102771",
        "server": "65535",
        "farm": 66,
        "title": "Mountain Bluebird",
        "ispublic": 1,
        "isfriend": 0,
        "isfamily": 0,
        "o_width": "1600",
        "o_height": "1200",
        "views": "100",
        "tags": "bird nature wildlife ornithology saskatchewan pamhawkes mountainbluebird greatsandhills"
      },
      {
        "id": "50215731463",
        "owner": "24083365@N07",
        "secret": "c8baf21c21",
        "server": "65535",
        "farm": 66,
        "title": "Mountain Bluebird",
        "ispublic": 1,
        "isfriend": 0,
        "isfamily": 0,
        "o_width": "1600",
        "o_height": "1202",
        "views": "100",
        "tags": "bird nature wildlife ornithology saskatchewan pamhawkes mountainbluebird greatsandhills"
      },
      {
        "id": "50215731413",
        "owner": "24083365@N07",
        "secret": "e4e79b7e14",
        "server": "65535",
        "farm": 66,
        "title": "Mountain Bluebird",
        "ispublic": 1,
        "isfriend": 0,
        "isfamily": 0,
        "o_width": "1600",
        "o_height": "1201",
        "views": "100",
        "tags": "bird nature wildlife ornithology saskatchewan pamhawkes mountainbluebird greatsandhills"
      },
      {
        "id": "50215731358",
        "owner": "24083365@N07",
        "secret": "c21aece7fc",
        "server": "65535",
        "farm": 66,
        "title": "Mountain Bluebird",
        "ispublic": 1,
        "isfriend": 0,
        "isfamily": 0,
        "o_width": "1600",
        "o_height": "1207",
        "views": "100",
        "tags": "bird nature wildlife ornithology saskatchewan pamhawkes mountainbluebird greatsandhills"
      }
    ]
  }
}
